…
Validating if there are any duplicates within each day for each interval:


```r
data_p1 %>%
        group_by(date, interval) %>%
        summarize(Count = n()) %>%
        arrange(desc(Count))
```

```
## # A tibble: 17,568 x 3
## # Groups:   date [61]
##    date       interval Count
##    <fct>         <int> <int>
##  1 2012-10-01        0     1
##  2 2012-10-01        5     1
##  3 2012-10-01       10     1
##  4 2012-10-01       15     1
##  5 2012-10-01       20     1
##  6 2012-10-01       25     1
##  7 2012-10-01       30     1
##  8 2012-10-01       35     1
##  9 2012-10-01       40     1
## 10 2012-10-01       45     1
## # ... with 17,558 more rows
```
…
